<?xml version="1.0" encoding="UTF-8" standalone="no"?>
<!-- Created with Inkscape (http://www.inkscape.org/) -->

<svg
    xmlns:dc="http://purl.org/dc/elements/1.1/"
    xmlns:cc="http://creativecommons.org/ns#"
    xmlns:rdf="http://www.w3.org/1999/02/22-rdf-syntax-ns#"
    xmlns="http://www.w3.org/2000/svg"
    xmlns:sodipodi="http://sodipodi.sourceforge.net/DTD/sodipodi-0.dtd"
    xmlns:inkscape="http://www.inkscape.org/namespaces/inkscape"
    width="24"
    height="24"
    viewBox="0 0 24 24.000001"
    version="1.1"
    id="svg8"
    inkscape:version="0.92.1 r15371"
    sodipodi:docname="condition_drizzle_heavy.svg">
  <defs
     id="defs2" />
  <sodipodi:namedview
     id="base"
     pagecolor="#ffffff"
     bordercolor="#666666"
     borderopacity="1.0"
     inkscape:pageopacity="0.0"
     inkscape:pageshadow="2"
     inkscape:zoom="32"
     inkscape:cx="11.452766"
     inkscape:cy="7.5179837"
     inkscape:document-units="px"
     inkscape:current-layer="layer2"
     showgrid="false"
     units="px"
     inkscape:showpageshadow="false"
     inkscape:pagecheckerboard="true"
     borderlayer="false"
     inkscape:window-width="1366"
     inkscape:window-height="745"
     inkscape:window-x="-8"
     inkscape:window-y="-8"
     inkscape:window-maximized="1"
     showguides="false"
     inkscape:guide-bbox="true"
     inkscape:snap-bbox="true"
     inkscape:bbox-nodes="true"
     inkscape:snap-nodes="false">
    <inkscape:grid
       type="xygrid"
       id="grid4485"
       empspacing="6" />
    <sodipodi:guide
       position="2,12.000001"
       orientation="1,0"
       id="guide4483"
       inkscape:locked="false" />
    <sodipodi:guide
       position="22,12.000001"
       orientation="1,0"
       id="guide4485"
       inkscape:locked="false" />
    <sodipodi:guide
       position="12,22"
       orientation="0,1"
       id="guide4487"
       inkscape:locked="false" />
    <sodipodi:guide
       position="12,2.0000001"
       orientation="0,1"
       id="guide4489"
       inkscape:locked="false" />
    <sodipodi:guide
       position="12,12.000001"
       orientation="-0.70710678,0.70710678"
       id="guide4491"
       inkscape:locked="false" />
    <sodipodi:guide
       position="11.999999,12"
       orientation="0.70710678,0.70710678"
       id="guide4493"
       inkscape:locked="false" />
  </sodipodi:namedview>
  <metadata
     id="metadata5">
    <rdf:RDF>
      <cc:Work
         rdf:about="">
        <dc:format>image/svg+xml</dc:format>
        <dc:type
           rdf:resource="http://purl.org/dc/dcmitype/StillImage" />
        <dc:title></dc:title>
        <cc:license
           rdf:resource="http://creativecommons.org/publicdomain/zero/1.0/" />
      </cc:Work>
      <cc:License
         rdf:about="http://creativecommons.org/publicdomain/zero/1.0/">
        <cc:permits
           rdf:resource="http://creativecommons.org/ns#Reproduction" />
        <cc:permits
           rdf:resource="http://creativecommons.org/ns#Distribution" />
        <cc:permits
           rdf:resource="http://creativecommons.org/ns#DerivativeWorks" />
      </cc:License>
    </rdf:RDF>
  </metadata>
  <g
     inkscape:groupmode="layer"
     id="layer2"
     inkscape:label="Layer 1">
    <g
       inkscape:label="Layer 1"
       id="layer2-4"
       transform="translate(-3.9294023e-7,-4.0000139)">
      <g
         inkscape:label="Layer 1"
         id="layer1"
         transform="matrix(1.0666667,0,0,1.0666667,-33.932886,-1084.9469)">
        <g
           id="g5104">
          <path
             style="opacity:1;fill:#e6e6e6;fill-opacity:1;fill-rule:nonzero;stroke:none;stroke-width:1.00262034;stroke-linecap:round;stroke-linejoin:round;stroke-miterlimit:4;stroke-dasharray:none;stroke-dashoffset:0;stroke-opacity:1"
             d="M 4.5,11 A 3.4999821,3.4999821 0 0 0 1,14.5 3.4999821,3.4999821 0 0 0 4.5,18 h 15 A 3.4999915,3.4999915 0 0 0 23,14.5 3.4999915,3.4999915 0 0 0 19.5,11 Z"
             transform="matrix(0.93749997,0,0,0.93749997,31.81208,1017.1377)"
             id="path4763"
             inkscape:connector-curvature="0" />
          <circle
             r="5.1562495"
             cy="1027.9189"
             cx="46.34333"
             id="path4763-86"
             style="opacity:1;fill:#e6e6e6;fill-opacity:1;fill-rule:nonzero;stroke:none;stroke-width:0.93995655;stroke-linecap:round;stroke-linejoin:round;stroke-miterlimit:4;stroke-dasharray:none;stroke-dashoffset:0;stroke-opacity:1" />
          <circle
             r="3.7500153"
             cy="1028.3877"
             cx="39.312096"
             id="path4763-5"
             style="opacity:1;fill:#e6e6e6;fill-opacity:1;fill-rule:nonzero;stroke:none;stroke-width:0.93995649;stroke-linecap:round;stroke-linejoin:round;stroke-miterlimit:4;stroke-dasharray:none;stroke-dashoffset:0;stroke-opacity:1" />
        </g>
      </g>
    </g>
    <rect
       style="opacity:1;fill:#42a5f5;fill-opacity:1;fill-rule:nonzero;stroke:none;stroke-width:2;stroke-linecap:square;stroke-linejoin:miter;stroke-miterlimit:4;stroke-dasharray:none;stroke-dashoffset:0;stroke-opacity:1;paint-order:normal"
       id="rect9030"
       width="1"
       height="3"
       x="8.6174927"
       y="14.139297"
       ry="0.49999997"
       rx="0.5"
       transform="rotate(15)" />
    <rect
       style="opacity:1;fill:#42a5f5;fill-opacity:1;fill-rule:nonzero;stroke:none;stroke-width:2;stroke-linecap:square;stroke-linejoin:miter;stroke-miterlimit:4;stroke-dasharray:none;stroke-dashoffset:0;stroke-opacity:1;paint-order:normal"
       id="rect9030-3"
       width="1"
       height="3"
       x="22.140455"
       y="10.51583"
       ry="0.49999997"
       rx="0.5"
       transform="rotate(15)" />
    <rect
       style="opacity:1;fill:#42a5f5;fill-opacity:1;fill-rule:nonzero;stroke:none;stroke-width:2;stroke-linecap:square;stroke-linejoin:miter;stroke-miterlimit:4;stroke-dasharray:none;stroke-dashoffset:0;stroke-opacity:1;paint-order:normal"
       id="rect9030-8"
       width="1"
       height="3"
       x="12.032908"
       y="15.294691"
       ry="0.49999997"
       rx="0.5"
       transform="rotate(15)" />
    <rect
       style="opacity:1;fill:#42a5f5;fill-opacity:1;fill-rule:nonzero;stroke:none;stroke-width:2;stroke-linecap:square;stroke-linejoin:miter;stroke-miterlimit:4;stroke-dasharray:none;stroke-dashoffset:0;stroke-opacity:1;paint-order:normal"
       id="rect9030-1"
       width="1"
       height="3"
       x="15.378974"
       y="12.327563"
       ry="0.49999997"
       rx="0.5"
       transform="rotate(15)" />
    <rect
       style="opacity:1;fill:#42a5f5;fill-opacity:1;fill-rule:nonzero;stroke:none;stroke-width:2;stroke-linecap:square;stroke-linejoin:miter;stroke-miterlimit:4;stroke-dasharray:none;stroke-dashoffset:0;stroke-opacity:1;paint-order:normal"
       id="rect9030-0"
       width="1"
       height="3"
       x="18.79439"
       y="13.482958"
       ry="0.49999997"
       rx="0.5"
       transform="rotate(15)" />
  </g>
</svg>
