<?xml version="1.0" encoding="UTF-8" standalone="no"?>
<!-- Created with Inkscape (http://www.inkscape.org/) -->

<svg
    xmlns:dc="http://purl.org/dc/elements/1.1/"
    xmlns:cc="http://creativecommons.org/ns#"
    xmlns:rdf="http://www.w3.org/1999/02/22-rdf-syntax-ns#"
    xmlns="http://www.w3.org/2000/svg"
    xmlns:sodipodi="http://sodipodi.sourceforge.net/DTD/sodipodi-0.dtd"
    xmlns:inkscape="http://www.inkscape.org/namespaces/inkscape"
    width="24"
    height="24"
    viewBox="0 0 24 24.000001"
    version="1.1"
    id="svg8"
    inkscape:version="0.92.1 r15371"
    sodipodi:docname="condition_sunny.svg">
  <defs
     id="defs2" />
  <sodipodi:namedview
     id="base"
     pagecolor="#ffffff"
     bordercolor="#666666"
     borderopacity="1.0"
     inkscape:pageopacity="0.0"
     inkscape:pageshadow="2"
     inkscape:zoom="16"
     inkscape:cx="1.5135523"
     inkscape:cy="13.105727"
     inkscape:document-units="px"
     inkscape:current-layer="layer2"
     showgrid="false"
     units="px"
     inkscape:showpageshadow="false"
     inkscape:pagecheckerboard="true"
     borderlayer="false"
     inkscape:window-width="1366"
     inkscape:window-height="745"
     inkscape:window-x="-8"
     inkscape:window-y="-8"
     inkscape:window-maximized="1"
     showguides="false"
     inkscape:guide-bbox="true"
     inkscape:snap-bbox="true"
     inkscape:bbox-nodes="true"
     inkscape:snap-center="false">
    <inkscape:grid
       type="xygrid"
       id="grid4485"
       empspacing="6" />
    <sodipodi:guide
       position="2,12.000001"
       orientation="1,0"
       id="guide4483"
       inkscape:locked="false" />
    <sodipodi:guide
       position="22,12.000001"
       orientation="1,0"
       id="guide4485"
       inkscape:locked="false" />
    <sodipodi:guide
       position="12,22"
       orientation="0,1"
       id="guide4487"
       inkscape:locked="false" />
    <sodipodi:guide
       position="12,2.0000001"
       orientation="0,1"
       id="guide4489"
       inkscape:locked="false" />
    <sodipodi:guide
       position="12,12.000001"
       orientation="-0.70710678,0.70710678"
       id="guide4491"
       inkscape:locked="false" />
    <sodipodi:guide
       position="11.999999,12"
       orientation="0.70710678,0.70710678"
       id="guide4493"
       inkscape:locked="false" />
  </sodipodi:namedview>
  <metadata
     id="metadata5">
    <rdf:RDF>
      <cc:Work
         rdf:about="">
        <dc:format>image/svg+xml</dc:format>
        <dc:type
           rdf:resource="http://purl.org/dc/dcmitype/StillImage" />
        <dc:title></dc:title>
        <cc:license
           rdf:resource="http://creativecommons.org/publicdomain/zero/1.0/" />
      </cc:Work>
      <cc:License
         rdf:about="http://creativecommons.org/publicdomain/zero/1.0/">
        <cc:permits
           rdf:resource="http://creativecommons.org/ns#Reproduction" />
        <cc:permits
           rdf:resource="http://creativecommons.org/ns#Distribution" />
        <cc:permits
           rdf:resource="http://creativecommons.org/ns#DerivativeWorks" />
      </cc:License>
    </rdf:RDF>
  </metadata>
  <g
     inkscape:groupmode="layer"
     id="layer2"
     inkscape:label="Layer 1">
    <g
       id="g5285"
       style="fill:#ffd600">
      <ellipse
         ry="5.9999824"
         rx="5.9999876"
         cy="12.000008"
         cx="12.000012"
         id="path4138"
         style="opacity:1;fill:#ffd600;fill-opacity:1;fill-rule:nonzero;stroke:none;stroke-width:1;stroke-linecap:round;stroke-linejoin:round;stroke-miterlimit:4;stroke-dasharray:none;stroke-dashoffset:0;stroke-opacity:1" />
      <rect
         style="opacity:1;fill:#ffd600;fill-opacity:1;fill-rule:nonzero;stroke:none;stroke-width:0.99999851;stroke-linecap:round;stroke-linejoin:round;stroke-miterlimit:4;stroke-dasharray:none;stroke-dashoffset:0;stroke-opacity:1"
         id="rect893"
         width="1.5"
         height="4"
         x="11.25"
         y="0.99999994"
         inkscape:transform-center-y="-9.0000019" />
      <rect
         inkscape:transform-center-x="-6.3639621"
         transform="rotate(45)"
         style="opacity:1;fill:#ffd600;fill-opacity:1;fill-rule:nonzero;stroke:none;stroke-width:0.99999851;stroke-linecap:round;stroke-linejoin:round;stroke-miterlimit:4;stroke-dasharray:none;stroke-dashoffset:0;stroke-opacity:1"
         id="rect893-2"
         width="1.5"
         height="4"
         x="16.220564"
         y="-11"
         inkscape:transform-center-y="-6.363962" />
      <rect
         inkscape:transform-center-x="-9.0000023"
         transform="rotate(90)"
         style="opacity:1;fill:#ffd600;fill-opacity:1;fill-rule:nonzero;stroke:none;stroke-width:0.99999851;stroke-linecap:round;stroke-linejoin:round;stroke-miterlimit:4;stroke-dasharray:none;stroke-dashoffset:0;stroke-opacity:1"
         id="rect893-2-5"
         width="1.5"
         height="4"
         x="11.250002"
         y="-23.000002" />
      <rect
         inkscape:transform-center-y="6.3639631"
         inkscape:transform-center-x="-6.3639631"
         transform="rotate(135)"
         style="opacity:1;fill:#ffd600;fill-opacity:1;fill-rule:nonzero;stroke:none;stroke-width:0.99999851;stroke-linecap:round;stroke-linejoin:round;stroke-miterlimit:4;stroke-dasharray:none;stroke-dashoffset:0;stroke-opacity:1"
         id="rect893-2-5-0"
         width="1.5"
         height="4"
         x="-0.74999863"
         y="-27.970564" />
      <rect
         inkscape:transform-center-y="9.0000022"
         transform="scale(-1)"
         style="opacity:1;fill:#ffd600;fill-opacity:1;fill-rule:nonzero;stroke:none;stroke-width:0.99999851;stroke-linecap:round;stroke-linejoin:round;stroke-miterlimit:4;stroke-dasharray:none;stroke-dashoffset:0;stroke-opacity:1"
         id="rect893-2-5-0-3"
         width="1.5"
         height="4"
         x="-12.749998"
         y="-23.000002" />
      <rect
         inkscape:transform-center-x="6.363962"
         inkscape:transform-center-y="6.3639627"
         transform="rotate(-135)"
         style="opacity:1;fill:#ffd600;fill-opacity:1;fill-rule:nonzero;stroke:none;stroke-width:0.99999851;stroke-linecap:round;stroke-linejoin:round;stroke-miterlimit:4;stroke-dasharray:none;stroke-dashoffset:0;stroke-opacity:1"
         id="rect893-2-5-0-3-8"
         width="1.5"
         height="4"
         x="-17.720562"
         y="-11.000003" />
      <rect
         inkscape:transform-center-x="9.0000019"
         transform="rotate(-90)"
         style="opacity:1;fill:#ffd600;fill-opacity:1;fill-rule:nonzero;stroke:none;stroke-width:0.99999851;stroke-linecap:round;stroke-linejoin:round;stroke-miterlimit:4;stroke-dasharray:none;stroke-dashoffset:0;stroke-opacity:1"
         id="rect893-2-5-0-3-8-6"
         width="1.5"
         height="4"
         x="-12.750001"
         y="0.99999666" />
      <rect
         inkscape:transform-center-y="-6.3639624"
         inkscape:transform-center-x="6.3639624"
         transform="rotate(-45)"
         style="opacity:1;fill:#ffd600;fill-opacity:1;fill-rule:nonzero;stroke:none;stroke-width:0.99999851;stroke-linecap:round;stroke-linejoin:round;stroke-miterlimit:4;stroke-dasharray:none;stroke-dashoffset:0;stroke-opacity:1"
         id="rect893-2-5-0-3-8-6-4"
         width="1.5"
         height="4"
         x="-0.75000197"
         y="5.9705606" />
    </g>
  </g>
</svg>
