<?xml version="1.0" encoding="UTF-8" standalone="no"?>
<!-- Created with Inkscape (http://www.inkscape.org/) -->

<svg
    xmlns:dc="http://purl.org/dc/elements/1.1/"
    xmlns:cc="http://creativecommons.org/ns#"
    xmlns:rdf="http://www.w3.org/1999/02/22-rdf-syntax-ns#"
    xmlns="http://www.w3.org/2000/svg"
    xmlns:sodipodi="http://sodipodi.sourceforge.net/DTD/sodipodi-0.dtd"
    xmlns:inkscape="http://www.inkscape.org/namespaces/inkscape"
    width="24"
    height="24"
    viewBox="0 0 24 24.000001"
    version="1.1"
    id="svg8"
    inkscape:version="0.92.1 r15371"
    sodipodi:docname="condition_freezing_rain_heavy.svg">
  <defs
     id="defs2" />
  <sodipodi:namedview
     id="base"
     pagecolor="#ffffff"
     bordercolor="#666666"
     borderopacity="1.0"
     inkscape:pageopacity="0.0"
     inkscape:pageshadow="2"
     inkscape:zoom="26.339728"
     inkscape:cx="14.723141"
     inkscape:cy="7.8784759"
     inkscape:document-units="px"
     inkscape:current-layer="layer2"
     showgrid="true"
     units="px"
     inkscape:showpageshadow="false"
     inkscape:pagecheckerboard="true"
     borderlayer="false"
     inkscape:window-width="1366"
     inkscape:window-height="745"
     inkscape:window-x="-8"
     inkscape:window-y="-8"
     inkscape:window-maximized="1"
     showguides="false"
     inkscape:guide-bbox="true"
     inkscape:snap-bbox="true"
     inkscape:bbox-nodes="true"
     inkscape:snap-nodes="false">
    <inkscape:grid
       type="xygrid"
       id="grid4485"
       empspacing="6" />
    <sodipodi:guide
       position="2,12.000001"
       orientation="1,0"
       id="guide4483"
       inkscape:locked="false" />
    <sodipodi:guide
       position="22,12.000001"
       orientation="1,0"
       id="guide4485"
       inkscape:locked="false" />
    <sodipodi:guide
       position="12,22"
       orientation="0,1"
       id="guide4487"
       inkscape:locked="false" />
    <sodipodi:guide
       position="12,2.0000001"
       orientation="0,1"
       id="guide4489"
       inkscape:locked="false" />
    <sodipodi:guide
       position="12,12.000001"
       orientation="-0.70710678,0.70710678"
       id="guide4491"
       inkscape:locked="false" />
    <sodipodi:guide
       position="11.999999,12"
       orientation="0.70710678,0.70710678"
       id="guide4493"
       inkscape:locked="false" />
  </sodipodi:namedview>
  <metadata
     id="metadata5">
    <rdf:RDF>
      <cc:Work
         rdf:about="">
        <dc:format>image/svg+xml</dc:format>
        <dc:type
           rdf:resource="http://purl.org/dc/dcmitype/StillImage" />
        <dc:title />
        <cc:license
           rdf:resource="http://creativecommons.org/publicdomain/zero/1.0/" />
      </cc:Work>
      <cc:License
         rdf:about="http://creativecommons.org/publicdomain/zero/1.0/">
        <cc:permits
           rdf:resource="http://creativecommons.org/ns#Reproduction" />
        <cc:permits
           rdf:resource="http://creativecommons.org/ns#Distribution" />
        <cc:permits
           rdf:resource="http://creativecommons.org/ns#DerivativeWorks" />
      </cc:License>
    </rdf:RDF>
  </metadata>
  <g
     inkscape:groupmode="layer"
     id="layer2"
     inkscape:label="Layer 1">
    <g
       transform="matrix(1.0666667,0,0,1.0666667,-33.932886,-1088.9469)"
       id="g5104"
       style="fill:#cccccc">
      <path
         inkscape:connector-curvature="0"
         id="path4763"
         transform="matrix(0.93749997,0,0,0.93749997,31.81208,1017.1377)"
         d="M 4.5,11 A 3.4999821,3.4999821 0 0 0 1,14.5 3.4999821,3.4999821 0 0 0 4.5,18 h 15 A 3.4999915,3.4999915 0 0 0 23,14.5 3.4999915,3.4999915 0 0 0 19.5,11 Z"
         style="opacity:1;fill:#cccccc;fill-opacity:1;fill-rule:nonzero;stroke:none;stroke-width:1.00262034;stroke-linecap:round;stroke-linejoin:round;stroke-miterlimit:4;stroke-dasharray:none;stroke-dashoffset:0;stroke-opacity:1" />
      <circle
         style="opacity:1;fill:#cccccc;fill-opacity:1;fill-rule:nonzero;stroke:none;stroke-width:0.93995655;stroke-linecap:round;stroke-linejoin:round;stroke-miterlimit:4;stroke-dasharray:none;stroke-dashoffset:0;stroke-opacity:1"
         id="path4763-86"
         cx="46.34333"
         cy="1027.9189"
         r="5.1562495" />
      <circle
         style="opacity:1;fill:#cccccc;fill-opacity:1;fill-rule:nonzero;stroke:none;stroke-width:0.93995649;stroke-linecap:round;stroke-linejoin:round;stroke-miterlimit:4;stroke-dasharray:none;stroke-dashoffset:0;stroke-opacity:1"
         id="path4763-5"
         cx="39.312096"
         cy="1028.3877"
         r="3.7500153" />
    </g>
    <rect
       style="opacity:1;fill:#42a5f5;fill-opacity:1;fill-rule:nonzero;stroke:none;stroke-width:2;stroke-linecap:square;stroke-linejoin:miter;stroke-miterlimit:4;stroke-dasharray:none;stroke-dashoffset:0;stroke-opacity:1;paint-order:normal"
       id="rect9030"
       width="2"
       height="5.000001"
       x="7.3071461"
       y="15.409607"
       ry="0.99999994"
       rx="1"
       transform="rotate(15)" />
    <rect
       style="opacity:1;fill:#42a5f5;fill-opacity:1;fill-rule:nonzero;stroke:none;stroke-width:2;stroke-linecap:square;stroke-linejoin:miter;stroke-miterlimit:4;stroke-dasharray:none;stroke-dashoffset:0;stroke-opacity:1;paint-order:normal"
       id="rect9030-1"
       width="2"
       height="5.000001"
       x="13.550988"
       y="11.666022"
       ry="0.99999994"
       rx="1"
       transform="rotate(15)" />
    <rect
       style="opacity:1;fill:#42a5f5;fill-opacity:1;fill-rule:nonzero;stroke:none;stroke-width:2;stroke-linecap:square;stroke-linejoin:miter;stroke-miterlimit:4;stroke-dasharray:none;stroke-dashoffset:0;stroke-opacity:1;paint-order:normal"
       id="rect9030-8"
       width="2"
       height="5.000001"
       x="17.932329"
       y="12.562597"
       ry="0.99999994"
       rx="1"
       transform="rotate(15)" />
    <rect
       style="opacity:1;fill:#42a5f5;fill-opacity:1;fill-rule:nonzero;stroke:none;stroke-width:2;stroke-linecap:square;stroke-linejoin:miter;stroke-miterlimit:4;stroke-dasharray:none;stroke-dashoffset:0;stroke-opacity:1;paint-order:normal"
       id="rect9030-9"
       width="2"
       height="5.000001"
       x="23.210247"
       y="9.0778313"
       ry="0.99999994"
       rx="1"
       transform="rotate(15)" />
    <path
       style="opacity:1;fill:#c5cae9;fill-opacity:1;fill-rule:nonzero;stroke:none;stroke-width:2;stroke-linecap:square;stroke-linejoin:miter;stroke-miterlimit:4;stroke-dasharray:none;stroke-dashoffset:0;stroke-opacity:1;paint-order:normal"
       d="M 5,14 H 7 L 6,21 Z"
       id="rect5074"
       inkscape:connector-curvature="0"
       sodipodi:nodetypes="cccc" />
    <path
       style="opacity:1;fill:#c5cae9;fill-opacity:1;fill-rule:nonzero;stroke:none;stroke-width:2;stroke-linecap:square;stroke-linejoin:miter;stroke-miterlimit:4;stroke-dasharray:none;stroke-dashoffset:0;stroke-opacity:1;paint-order:normal"
       d="m 7.0000016,13.99999 h 1.5 l -0.75,4 z"
       id="rect5074-0"
       inkscape:connector-curvature="0"
       sodipodi:nodetypes="cccc" />
    <path
       style="opacity:1;fill:#c5cae9;fill-opacity:1;fill-rule:nonzero;stroke:none;stroke-width:2;stroke-linecap:square;stroke-linejoin:miter;stroke-miterlimit:4;stroke-dasharray:none;stroke-dashoffset:0;stroke-opacity:1;paint-order:normal"
       d="m 17.000002,13.99999 h 1.5 l -0.75,4 z"
       id="rect5074-0-2"
       inkscape:connector-curvature="0"
       sodipodi:nodetypes="cccc" />
  </g>
</svg>
