<?xml version="1.0" encoding="UTF-8" standalone="no"?>
<!-- Created with Inkscape (http://www.inkscape.org/) -->

<svg
    xmlns:dc="http://purl.org/dc/elements/1.1/"
    xmlns:cc="http://creativecommons.org/ns#"
    xmlns:rdf="http://www.w3.org/1999/02/22-rdf-syntax-ns#"
    xmlns="http://www.w3.org/2000/svg"
    xmlns:sodipodi="http://sodipodi.sourceforge.net/DTD/sodipodi-0.dtd"
    xmlns:inkscape="http://www.inkscape.org/namespaces/inkscape"
    width="24"
    height="24"
    viewBox="0 0 24 24.000001"
    version="1.1"
    id="svg8"
    inkscape:version="0.92.1 r15371"
    sodipodi:docname="condition_thunderstorm_rain_heavy_chance.svg">
  <defs
     id="defs2">
    <pattern
       y="0"
       x="0"
       height="6"
       width="6"
       patternUnits="userSpaceOnUse"
       id="EMFhbasepattern" />
    <pattern
       y="0"
       x="0"
       height="6"
       width="6"
       patternUnits="userSpaceOnUse"
       id="EMFhbasepattern-4" />
  </defs>
  <sodipodi:namedview
     id="base"
     pagecolor="#ffffff"
     bordercolor="#666666"
     borderopacity="1.0"
     inkscape:pageopacity="0.0"
     inkscape:pageshadow="2"
     inkscape:zoom="18.625"
     inkscape:cx="4.349925"
     inkscape:cy="10.319126"
     inkscape:document-units="px"
     inkscape:current-layer="layer2"
     showgrid="false"
     units="px"
     inkscape:showpageshadow="false"
     inkscape:pagecheckerboard="true"
     borderlayer="false"
     inkscape:window-width="1366"
     inkscape:window-height="745"
     inkscape:window-x="-8"
     inkscape:window-y="-8"
     inkscape:window-maximized="1"
     showguides="false"
     inkscape:guide-bbox="true"
     inkscape:snap-bbox="true"
     inkscape:bbox-nodes="true"
     inkscape:snap-nodes="false">
    <inkscape:grid
       type="xygrid"
       id="grid4485"
       empspacing="6" />
    <sodipodi:guide
       position="2,12.000001"
       orientation="1,0"
       id="guide4483"
       inkscape:locked="false" />
    <sodipodi:guide
       position="22,12.000001"
       orientation="1,0"
       id="guide4485"
       inkscape:locked="false" />
    <sodipodi:guide
       position="12,22"
       orientation="0,1"
       id="guide4487"
       inkscape:locked="false" />
    <sodipodi:guide
       position="12,2.0000001"
       orientation="0,1"
       id="guide4489"
       inkscape:locked="false" />
    <sodipodi:guide
       position="12,12.000001"
       orientation="-0.70710678,0.70710678"
       id="guide4491"
       inkscape:locked="false" />
    <sodipodi:guide
       position="11.999999,12"
       orientation="0.70710678,0.70710678"
       id="guide4493"
       inkscape:locked="false" />
  </sodipodi:namedview>
  <metadata
     id="metadata5">
    <rdf:RDF>
      <cc:Work
         rdf:about="">
        <dc:format>image/svg+xml</dc:format>
        <dc:type
           rdf:resource="http://purl.org/dc/dcmitype/StillImage" />
        <dc:title></dc:title>
        <cc:license
           rdf:resource="http://creativecommons.org/publicdomain/zero/1.0/" />
      </cc:Work>
      <cc:License
         rdf:about="http://creativecommons.org/publicdomain/zero/1.0/">
        <cc:permits
           rdf:resource="http://creativecommons.org/ns#Reproduction" />
        <cc:permits
           rdf:resource="http://creativecommons.org/ns#Distribution" />
        <cc:permits
           rdf:resource="http://creativecommons.org/ns#DerivativeWorks" />
      </cc:License>
    </rdf:RDF>
  </metadata>
  <g
     inkscape:groupmode="layer"
     id="layer2"
     inkscape:label="Layer 1">
    <g
       id="layer2-1"
       inkscape:label="Layer 2"
       transform="matrix(0.53333339,0,0,0.53333336,-4.3333338,-7.9999999)"
       style="stroke-width:1.99999976">
      <g
         id="layer2-1-7"
         inkscape:label="Layer 2"
         transform="translate(1.8749996)"
         style="stroke-width:1.99999976">
        <path
           style="fill:#ffd600;fill-opacity:1;fill-rule:evenodd;stroke:none;stroke-width:1.89228129px;stroke-linecap:butt;stroke-linejoin:miter;stroke-opacity:1"
           d="m 22.499999,37.499999 4.166666,-1e-6 -2.083333,7.5 h 4.166666 l -6.562499,11.249999 1.354166,-7.5 h -4.166666 z"
           id="path4494"
           inkscape:connector-curvature="0"
           sodipodi:nodetypes="cccccccc" />
      </g>
    </g>
    <g
       transform="matrix(1.0666667,0,0,1.0666667,-33.932888,-1088.9469)"
       id="g5104"
       style="fill:#b3b3b3">
      <path
         inkscape:connector-curvature="0"
         id="path4763"
         transform="matrix(0.93749997,0,0,0.93749997,31.81208,1017.1377)"
         d="M 4.5,11 A 3.4999821,3.4999821 0 0 0 1,14.5 3.4999821,3.4999821 0 0 0 4.5,18 h 15 A 3.4999915,3.4999915 0 0 0 23,14.5 3.4999915,3.4999915 0 0 0 19.5,11 Z"
         style="opacity:1;fill:#b3b3b3;fill-opacity:1;fill-rule:nonzero;stroke:none;stroke-width:1.00262034;stroke-linecap:round;stroke-linejoin:round;stroke-miterlimit:4;stroke-dasharray:none;stroke-dashoffset:0;stroke-opacity:1" />
      <circle
         style="opacity:1;fill:#b3b3b3;fill-opacity:1;fill-rule:nonzero;stroke:none;stroke-width:0.93995655;stroke-linecap:round;stroke-linejoin:round;stroke-miterlimit:4;stroke-dasharray:none;stroke-dashoffset:0;stroke-opacity:1"
         id="path4763-86"
         cx="46.34333"
         cy="1027.9189"
         r="5.1562495" />
      <circle
         style="opacity:1;fill:#b3b3b3;fill-opacity:1;fill-rule:nonzero;stroke:none;stroke-width:0.93995649;stroke-linecap:round;stroke-linejoin:round;stroke-miterlimit:4;stroke-dasharray:none;stroke-dashoffset:0;stroke-opacity:1"
         id="path4763-5"
         cx="39.312096"
         cy="1028.3877"
         r="3.7500153" />
    </g>
    <rect
       style="opacity:1;fill:#42a5f5;fill-opacity:1;fill-rule:nonzero;stroke:none;stroke-width:2;stroke-linecap:square;stroke-linejoin:miter;stroke-miterlimit:4;stroke-dasharray:none;stroke-dashoffset:0;stroke-opacity:1;paint-order:normal"
       id="rect9030"
       width="2"
       height="5.000001"
       x="6.7895079"
       y="13.477756"
       ry="0.99999994"
       rx="1"
       transform="rotate(15)" />
    <rect
       style="opacity:1;fill:#42a5f5;fill-opacity:1;fill-rule:nonzero;stroke:none;stroke-width:2;stroke-linecap:square;stroke-linejoin:miter;stroke-miterlimit:4;stroke-dasharray:none;stroke-dashoffset:0;stroke-opacity:1;paint-order:normal"
       id="rect9030-1"
       width="2"
       height="5.000001"
       x="16.966404"
       y="12.821416"
       ry="0.99999994"
       rx="1"
       transform="rotate(15)" />
    <rect
       style="opacity:1;fill:#42a5f5;fill-opacity:1;fill-rule:nonzero;stroke:none;stroke-width:2;stroke-linecap:square;stroke-linejoin:miter;stroke-miterlimit:4;stroke-dasharray:none;stroke-dashoffset:0;stroke-opacity:1;paint-order:normal"
       id="rect9030-8"
       width="2"
       height="5.000001"
       x="20.05365"
       y="8.8883629"
       ry="0.99999994"
       rx="1"
       transform="rotate(15)" />
    <rect
       style="opacity:1;fill:#42a5f5;fill-opacity:1;fill-rule:nonzero;stroke:none;stroke-width:2;stroke-linecap:square;stroke-linejoin:miter;stroke-miterlimit:4;stroke-dasharray:none;stroke-dashoffset:0;stroke-opacity:1;paint-order:normal"
       id="rect9030-9"
       width="2"
       height="5.000001"
       x="23.727884"
       y="11.009683"
       ry="0.99999994"
       rx="1"
       transform="rotate(15)" />
    <path
       id="path4516"
       d="m 14.5,7.5114939 c 0,0.3218394 -0.07937,0.5632185 -0.238095,0.8045976 -0.15873,0.3218395 -0.396825,0.5632186 -0.793652,0.8045977 l -0.317459,0.3218394 c -0.238096,0.1609198 -0.396826,0.3218395 -0.555556,0.4827582 -0.07937,0.1609202 -0.15873,0.3218392 -0.15873,0.4827592 h -1.269841 c 0,-0.321839 0.158729,-0.5632185 0.31746,-0.885058 0.15873,-0.2413791 0.396825,-0.4827582 0.714286,-0.7241373 0.317459,-0.2413801 0.555555,-0.4827592 0.714285,-0.6436789 0.15873,-0.1609187 0.15873,-0.4022988 0.15873,-0.6436779 0,-0.2413791 -0.07937,-0.4827582 -0.238095,-0.6436779 -0.15873,-0.1609198 -0.47619,-0.2413791 -0.793651,-0.2413791 -0.31746,0 -0.555555,0.08046 -0.79365,0.2413791 -0.238095,0.2413791 -0.317461,0.4827582 -0.396826,0.8045976 L 9.5000001,7.5919543 c 0.079366,-0.643679 0.3174603,-1.1264372 0.7936509,-1.528736 0.47619,-0.4022988 1.031745,-0.5632185 1.746031,-0.5632185 0.714286,0 1.349207,0.1609197 1.746032,0.5632185 C 14.261905,6.3850568 14.5,6.867816 14.5,7.5114939 Z m -3.333333,4.9885051 v -1.287355 h 1.349205 v 1.287355 z"
       style="fill:#666666;fill-opacity:1;fill-rule:nonzero;stroke:none;stroke-width:1"
       inkscape:connector-curvature="0" />
  </g>
</svg>
